10 10 10 1. 
0 0 0 0. 
0 0 1 0.061031 
0 0 2 0.081734 
0 0 3 0.11302 
0 0 4 0.16648 
0 0 5 0.23681 
0 0 6 0.31964 
0 0 7 0.41764 
0 0 8 0.52734 
0 0 9 0.64841 
0 0 10 1. 
0 1 0 0.070828 
0 1 1 0.084328 
0 1 2 0.10514 
0 1 3 0.1368 
0 1 4 0.17753 
0 1 5 0.24219 
0 1 6 0.32311 
0 1 7 0.42136 
0 1 8 0.53011 
0 1 9 0.64959 
0 1 10 1. 
0 2 0 0.094281 
0 2 1 0.11227 
0 2 2 0.13714 
0 2 3 0.16923 
0 2 4 0.21059 
0 2 5 0.26009 
0 2 6 0.3325 
0 2 7 0.42667 
0 2 8 0.53313 
0 2 9 0.65042 
0 2 10 1. 
0 3 0 0.12697 
0 3 1 0.14347 
0 3 2 0.17175 
0 3 3 0.20783 
0 3 4 0.24983 
0 3 5 0.30008 
0 3 6 0.35688 
0 3 7 0.43923 
0 3 8 0.54127 
0 3 9 0.65494 
0 3 10 1. 
0 4 0 0.17347 
0 4 1 0.18861 
0 4 2 0.21242 
0 4 3 0.24741 
0 4 4 0.29141 
0 4 5 0.34166 
0 4 6 0.39917 
0 4 7 0.46375 
0 4 8 0.55492 
0 4 9 0.66305 
0 4 10 1. 
0 5 0 0.23691 
0 5 1 0.24531 
0 5 2 0.26648 
0 5 3 0.29503 
0 5 4 0.33478 
0 5 5 0.38394 
0 5 6 0.43947 
0 5 7 0.50367 
0 5 8 0.57558 
0 5 9 0.67503 
0 5 10 1. 
0 6 0 0.31964 
0 6 1 0.32347 
0 6 2 0.33652 
0 6 3 0.35817 
0 6 4 0.38925 
0 6 5 0.43011 
0 6 6 0.48106 
0 6 7 0.5418 
0 6 8 0.61131 
0 6 9 0.69194 
0 6 10 1. 
0 7 0 0.41764 
0 7 1 0.42111 
0 7 2 0.42766 
0 7 3 0.44216 
0 7 4 0.46398 
0 7 5 0.49392 
0 7 6 0.53292 
0 7 7 0.58359 
0 7 8 0.64747 
0 7 9 0.72011 
0 7 10 1. 
0 8 0 0.52734 
0 8 1 0.52989 
0 8 2 0.53311 
0 8 3 0.5422 
0 8 4 0.55652 
0 8 5 0.57717 
0 8 6 0.60509 
0 8 7 0.64147 
0 8 8 0.69023 
0 8 9 0.75412 
0 8 10 1. 
0 9 0 0.64841 
0 9 1 0.64931 
0 9 2 0.65042 
0 9 3 0.65522 
0 9 4 0.66347 
0 9 5 0.67567 
0 9 6 0.69319 
0 9 7 0.71755 
0 9 8 0.75145 
0 9 9 0.79755 
0 9 10 1. 
0 10 0 1. 
0 10 1 1. 
0 10 2 1. 
0 10 3 1. 
0 10 4 1. 
0 10 5 1. 
0 10 6 1. 
0 10 7 1. 
0 10 8 1. 
0 10 9 1. 
0 10 10 1. 
1 0 0 0.067813 
1 0 1 0.074875 
1 0 2 0.090687 
1 0 3 0.12145 
1 0 4 0.17461 
1 0 5 0.24194 
1 0 6 0.32336 
1 0 7 0.42111 
1 0 8 0.52989 
1 0 9 0.64931 
1 0 10 1. 
1 1 0 0.090375 
1 1 1 0.098125 
1 1 2 0.11484 
1 1 3 0.14261 
1 1 4 0.1845 
1 1 5 0.24841 
1 1 6 0.32906 
1 1 7 0.42634 
1 1 8 0.53455 
1 1 9 0.65241 
1 1 10 1. 
1 2 0 0.11659 
1 2 1 0.12902 
1 2 2 0.14691 
1 2 3 0.17486 
1 2 4 0.21359 
1 2 5 0.26305 
1 2 6 0.33766 
1 2 7 0.43216 
1 2 8 0.5382 
1 2 9 0.65459 
1 2 10 1. 
1 3 0 0.14809 
1 3 1 0.16269 
1 3 2 0.18653 
1 3 3 0.21548 
1 3 4 0.25263 
1 3 5 0.30061 
1 3 6 0.35673 
1 3 7 0.44463 
1 3 8 0.54575 
1 3 9 0.65752 
1 3 10 1. 
1 4 0 0.18939 
1 4 1 0.20316 
1 4 2 0.22827 
1 4 3 0.26348 
1 4 4 0.298 
1 4 5 0.34541 
1 4 6 0.40128 
1 4 7 0.46514 
1 4 8 0.55944 
1 4 9 0.66562 
1 4 10 1. 
1 5 0 0.24509 
1 5 1 0.2558 
1 5 2 0.27816 
1 5 3 0.30922 
1 5 4 0.34527 
1 5 5 0.3902 
1 5 6 0.44511 
1 5 7 0.50727 
1 5 8 0.57964 
1 5 9 0.67777 
1 5 10 1. 
1 6 0 0.3232 
1 6 1 0.32931 
1 6 2 0.34213 
1 6 3 0.36727 
1 6 4 0.40103 
1 6 5 0.43891 
1 6 6 0.48861 
1 6 7 0.54833 
1 6 8 0.61544 
1 6 9 0.69492 
1 6 10 1. 
1 7 0 0.42136 
1 7 1 0.42634 
1 7 2 0.43272 
1 7 3 0.44791 
1 7 4 0.47122 
1 7 5 0.50345 
1 7 6 0.54059 
1 7 7 0.59169 
1 7 8 0.65361 
1 7 9 0.72269 
1 7 10 1. 
1 8 0 0.53011 
1 8 1 0.53455 
1 8 2 0.53803 
1 8 3 0.54675 
1 8 4 0.56158 
1 8 5 0.58286 
1 8 6 0.61062 
1 8 7 0.64781 
1 8 8 0.69678 
1 8 9 0.75794 
1 8 10 1. 
1 9 0 0.64959 
1 9 1 0.65241 
1 9 2 0.65425 
1 9 3 0.65773 
1 9 4 0.66603 
1 9 5 0.67852 
1 9 6 0.69655 
1 9 7 0.72105 
1 9 8 0.75503 
1 9 9 0.80069 
1 9 10 1. 
1 10 0 1. 
1 10 1 1. 
1 10 2 1. 
1 10 3 1. 
1 10 4 1. 
1 10 5 1. 
1 10 6 1. 
1 10 7 1. 
1 10 8 1. 
1 10 9 1. 
1 10 10 1. 
2 0 0 0.090937 
2 0 1 0.10053 
2 0 2 0.11552 
2 0 3 0.14333 
2 0 4 0.19073 
2 0 5 0.25538 
2 0 6 0.33289 
2 0 7 0.42661 
2 0 8 0.53292 
2 0 9 0.65042 
2 0 10 1. 
2 1 0 0.11516 
2 1 1 0.12403 
2 1 2 0.13636 
2 1 3 0.15905 
2 1 4 0.20122 
2 1 5 0.26328 
2 1 6 0.33827 
2 1 7 0.43234 
2 1 8 0.53803 
2 1 9 0.65425 
2 1 10 1. 
2 2 0 0.14587 
2 2 1 0.15355 
2 2 2 0.16683 
2 2 3 0.19055 
2 2 4 0.22494 
2 2 5 0.27695 
2 2 6 0.34783 
2 2 7 0.43816 
2 2 8 0.54305 
2 2 9 0.65723 
2 2 10 1. 
2 3 0 0.17927 
2 3 1 0.19125 
2 3 2 0.20456 
2 3 3 0.22869 
2 3 4 0.26327 
2 3 5 0.30767 
2 3 6 0.36636 
2 3 7 0.45031 
2 3 8 0.54977 
2 3 9 0.66078 
2 3 10 1. 
2 4 0 0.21925 
2 4 1 0.23128 
2 4 2 0.25245 
2 4 3 0.27656 
2 4 4 0.31172 
2 4 5 0.35244 
2 4 6 0.40492 
2 4 7 0.47164 
2 4 8 0.56394 
2 4 9 0.66769 
2 4 10 1. 
2 5 0 0.26817 
2 5 1 0.27784 
2 5 2 0.29913 
2 5 3 0.32997 
2 5 4 0.35956 
2 5 5 0.40173 
2 5 6 0.45186 
2 5 7 0.5108 
2 5 8 0.58441 
2 5 9 0.6798 
2 5 10 1. 
2 6 0 0.33591 
2 6 1 0.34105 
2 6 2 0.35639 
2 6 3 0.38292 
2 6 4 0.41739 
2 6 5 0.45077 
2 6 6 0.49819 
2 6 7 0.55484 
2 6 8 0.61878 
2 6 9 0.698 
2 6 10 1. 
2 7 0 0.42753 
2 7 1 0.43245 
2 7 2 0.4383 
2 7 3 0.45445 
2 7 4 0.48048 
2 7 5 0.51572 
2 7 6 0.55039 
2 7 7 0.59987 
2 7 8 0.6597 
2 7 9 0.72495 
2 7 10 1. 
2 8 0 0.5332 
2 8 1 0.5382 
2 8 2 0.54305 
2 8 3 0.55094 
2 8 4 0.56627 
2 8 5 0.58853 
2 8 6 0.61678 
2 8 7 0.65484 
2 8 8 0.70305 
2 8 9 0.76187 
2 8 10 1. 
2 9 0 0.65042 
2 9 1 0.65459 
2 9 2 0.65723 
2 9 3 0.66106 
2 9 4 0.66827 
2 9 5 0.6813 
2 9 6 0.69989 
2 9 7 0.72458 
2 9 8 0.75933 
2 9 9 0.80436 
2 9 10 1. 
2 10 0 1. 
2 10 1 1. 
2 10 2 1. 
2 10 3 1. 
2 10 4 1. 
2 10 5 1. 
2 10 6 1. 
2 10 7 1. 
2 10 8 1. 
2 10 9 1. 
2 10 10 1. 
3 0 0 0.12355 
3 0 1 0.1335 
3 0 2 0.15086 
3 0 3 0.17686 
3 0 4 0.21839 
3 0 5 0.27841 
3 0 6 0.35097 
3 0 7 0.43939 
3 0 8 0.54142 
3 0 9 0.65502 
3 0 10 1. 
3 1 0 0.1472 
3 1 1 0.15714 
3 1 2 0.17367 
3 1 3 0.19541 
3 1 4 0.22825 
3 1 5 0.28667 
3 1 6 0.35713 
3 1 7 0.44483 
3 1 8 0.54592 
3 1 9 0.65758 
3 1 10 1. 
3 2 0 0.17925 
3 2 1 0.18798 
3 2 2 0.19969 
3 2 3 0.21781 
3 2 4 0.24689 
3 2 5 0.29961 
3 2 6 0.3662 
3 2 7 0.45075 
3 2 8 0.55025 
3 2 9 0.66097 
3 2 10 1. 
3 3 0 0.21713 
3 3 1 0.22475 
3 3 2 0.23525 
3 3 3 0.25386 
3 3 4 0.28331 
3 3 5 0.32348 
3 3 6 0.38361 
3 3 7 0.46195 
3 3 8 0.55616 
3 3 9 0.66411 
3 3 10 1. 
3 4 0 0.25786 
3 4 1 0.26842 
3 4 2 0.2815 
3 4 3 0.29588 
3 4 4 0.3257 
3 4 5 0.36561 
3 4 6 0.41423 
3 4 7 0.48345 
3 4 8 0.56902 
3 4 9 0.67112 
3 4 10 1. 
3 5 0 0.30614 
3 5 1 0.31319 
3 5 2 0.33173 
3 5 3 0.3575 
3 5 4 0.38177 
3 5 5 0.41406 
3 5 6 0.46228 
3 5 7 0.51748 
3 5 8 0.59078 
3 5 9 0.68284 
3 5 10 1. 
3 6 0 0.36239 
3 6 1 0.36663 
3 6 2 0.38273 
3 6 3 0.40769 
3 6 4 0.44141 
3 6 5 0.46795 
3 6 6 0.51202 
3 6 7 0.56423 
3 6 8 0.62283 
3 6 9 0.70034 
3 6 10 1. 
3 7 0 0.44186 
3 7 1 0.44752 
3 7 2 0.45363 
3 7 3 0.47119 
3 7 4 0.49906 
3 7 5 0.53448 
3 7 6 0.56458 
3 7 7 0.61189 
3 7 8 0.66648 
3 7 9 0.72678 
3 7 10 1. 
3 8 0 0.54202 
3 8 1 0.54652 
3 8 2 0.55028 
3 8 3 0.55689 
3 8 4 0.57227 
3 8 5 0.5977 
3 8 6 0.62523 
3 8 7 0.66462 
3 8 8 0.712 
3 8 9 0.76652 
3 8 10 1. 
3 9 0 0.65511 
3 9 1 0.65766 
3 9 2 0.66083 
3 9 3 0.66416 
3 9 4 0.67181 
3 9 5 0.6842 
3 9 6 0.7038 
3 9 7 0.72902 
3 9 8 0.76491 
3 9 9 0.80953 
3 9 10 1. 
3 10 0 1. 
3 10 1 1. 
3 10 2 1. 
3 10 3 1. 
3 10 4 1. 
3 10 5 1. 
3 10 6 1. 
3 10 7 1. 
3 10 8 1. 
3 10 9 1. 
3 10 10 1. 
4 0 0 0.17114 
4 0 1 0.18081 
4 0 2 0.19795 
4 0 3 0.22348 
4 0 4 0.25791 
4 0 5 0.31147 
4 0 6 0.37861 
4 0 7 0.45972 
4 0 8 0.55516 
4 0 9 0.66327 
4 0 10 1. 
4 1 0 0.1882 
4 1 1 0.19795 
4 1 2 0.21502 
4 1 3 0.23909 
4 1 4 0.27239 
4 1 5 0.32081 
4 1 6 0.38573 
4 1 7 0.46572 
4 1 8 0.55994 
4 1 9 0.6658 
4 1 10 1. 
4 2 0 0.21905 
4 2 1 0.22903 
4 2 2 0.24495 
4 2 3 0.26653 
4 2 4 0.29589 
4 2 5 0.3333 
4 2 6 0.39547 
4 2 7 0.47195 
4 2 8 0.56414 
4 2 9 0.66794 
4 2 10 1. 
4 3 0 0.25786 
4 3 1 0.26714 
4 3 2 0.27608 
4 3 3 0.29155 
4 3 4 0.31545 
4 3 5 0.35273 
4 3 6 0.40994 
4 3 7 0.48352 
4 3 8 0.56914 
4 3 9 0.6715 
4 3 10 1. 
4 4 0 0.30163 
4 4 1 0.3053 
4 4 2 0.31988 
4 4 3 0.33206 
4 4 4 0.35514 
4 4 5 0.38952 
4 4 6 0.43416 
4 4 7 0.50242 
4 4 8 0.58242 
4 4 9 0.67737 
4 4 10 1. 
4 5 0 0.34827 
4 5 1 0.35308 
4 5 2 0.36488 
4 5 3 0.38572 
4 5 4 0.40034 
4 5 5 0.43381 
4 5 6 0.4773 
4 5 7 0.53044 
4 5 8 0.60386 
4 5 9 0.68869 
4 5 10 1. 
4 6 0 0.4033 
4 6 1 0.40831 
4 6 2 0.42034 
4 6 3 0.4425 
4 6 4 0.47144 
4 6 5 0.48306 
4 6 6 0.52548 
4 6 7 0.57564 
4 6 8 0.63237 
4 6 9 0.70728 
4 6 10 1. 
4 7 0 0.46719 
4 7 1 0.47055 
4 7 2 0.47998 
4 7 3 0.49903 
4 7 4 0.52484 
4 7 5 0.55894 
4 7 6 0.58317 
4 7 7 0.62672 
4 7 8 0.67789 
4 7 9 0.73509 
4 7 10 1. 
4 8 0 0.55627 
4 8 1 0.56106 
4 8 2 0.566 
4 8 3 0.57205 
4 8 4 0.59041 
4 8 5 0.61747 
4 8 6 0.64077 
4 8 7 0.67823 
4 8 8 0.72284 
4 8 9 0.77392 
4 8 10 1. 
4 9 0 0.66325 
4 9 1 0.66584 
4 9 2 0.668 
4 9 3 0.67142 
4 9 4 0.67834 
4 9 5 0.69109 
4 9 6 0.71375 
4 9 7 0.7377 
4 9 8 0.77345 
4 9 9 0.81595 
4 9 10 1. 
4 10 0 1. 
4 10 1 1. 
4 10 2 1. 
4 10 3 1. 
4 10 4 1. 
4 10 5 1. 
4 10 6 1. 
4 10 7 1. 
4 10 8 1. 
4 10 9 1. 
4 10 10 1. 
5 0 0 0.23686 
5 0 1 0.24222 
5 0 2 0.2567 
5 0 3 0.28072 
5 0 4 0.31244 
5 0 5 0.35541 
5 0 6 0.41438 
5 0 7 0.48789 
5 0 8 0.57509 
5 0 9 0.67527 
5 0 10 1. 
5 1 0 0.24488 
5 1 1 0.25267 
5 1 2 0.2685 
5 1 3 0.29236 
5 1 4 0.32355 
5 1 5 0.36464 
5 1 6 0.42239 
5 1 7 0.49464 
5 1 8 0.58011 
5 1 9 0.67797 
5 1 10 1. 
5 2 0 0.26798 
5 2 1 0.27636 
5 2 2 0.29233 
5 2 3 0.31455 
5 2 4 0.34433 
5 2 5 0.38272 
5 2 6 0.43413 
5 2 7 0.50236 
5 2 8 0.58464 
5 2 9 0.6805 
5 2 10 1. 
5 3 0 0.30614 
5 3 1 0.31273 
5 3 2 0.32789 
5 3 3 0.3483 
5 3 4 0.37466 
5 3 5 0.39577 
5 3 6 0.44745 
5 3 7 0.51394 
5 3 8 0.59117 
5 3 9 0.68302 
5 3 10 1. 
5 4 0 0.34827 
5 4 1 0.35306 
5 4 2 0.36277 
5 4 3 0.37706 
5 4 4 0.39638 
5 4 5 0.42491 
5 4 6 0.46733 
5 4 7 0.53041 
5 4 8 0.6038 
5 4 9 0.68886 
5 4 10 1. 
5 5 0 0.39386 
5 5 1 0.39808 
5 5 2 0.4085 
5 5 3 0.42169 
5 5 4 0.43947 
5 5 5 0.4657 
5 5 6 0.50316 
5 5 7 0.55448 
5 5 8 0.62309 
5 5 9 0.70097 
5 5 10 1. 
5 6 0 0.44472 
5 6 1 0.44978 
5 6 2 0.45786 
5 6 3 0.47352 
5 6 4 0.48745 
5 6 5 0.51141 
5 6 6 0.54645 
5 6 7 0.59187 
5 6 8 0.6488 
5 6 9 0.71983 
5 6 10 1. 
5 7 0 0.50642 
5 7 1 0.51161 
5 7 2 0.51927 
5 7 3 0.5353 
5 7 4 0.55888 
5 7 5 0.5637 
5 7 6 0.59737 
5 7 7 0.63973 
5 7 8 0.68894 
5 7 9 0.74614 
5 7 10 1. 
5 8 0 0.57755 
5 8 1 0.58236 
5 8 2 0.58822 
5 8 3 0.59731 
5 8 4 0.61742 
5 8 5 0.64258 
5 8 6 0.66316 
5 8 7 0.69628 
5 8 8 0.73664 
5 8 9 0.78227 
5 8 10 1. 
5 9 0 0.67544 
5 9 1 0.6783 
5 9 2 0.68058 
5 9 3 0.68397 
5 9 4 0.69106 
5 9 5 0.70752 
5 9 6 0.73128 
5 9 7 0.75134 
5 9 8 0.78406 
5 9 9 0.82345 
5 9 10 1. 
5 10 0 1. 
5 10 1 1. 
5 10 2 1. 
5 10 3 1. 
5 10 4 1. 
5 10 5 1. 
5 10 6 1. 
5 10 7 1. 
5 10 8 1. 
5 10 9 1. 
5 10 10 1. 
6 0 0 0.31964 
6 0 1 0.32336 
6 0 2 0.33291 
6 0 3 0.35097 
6 0 4 0.37866 
6 0 5 0.41438 
6 0 6 0.46141 
6 0 7 0.5247 
6 0 8 0.60198 
6 0 9 0.69223 
6 0 10 1. 
6 1 0 0.3232 
6 1 1 0.32919 
6 1 2 0.33841 
6 1 3 0.35734 
6 1 4 0.38619 
6 1 5 0.42242 
6 1 6 0.46866 
6 1 7 0.5318 
6 1 8 0.60753 
6 1 9 0.69523 
6 1 10 1. 
6 2 0 0.33589 
6 2 1 0.34089 
6 2 2 0.35236 
6 2 3 0.37175 
6 2 4 0.39997 
6 2 5 0.43541 
6 2 6 0.48081 
6 2 7 0.54039 
6 2 8 0.61323 
6 2 9 0.69811 
6 2 10 1. 
6 3 0 0.36239 
6 3 1 0.36642 
6 3 2 0.38036 
6 3 3 0.39975 
6 3 4 0.42573 
6 3 5 0.45827 
6 3 6 0.49892 
6 3 7 0.5538 
6 3 8 0.62067 
6 3 9 0.70073 
6 3 10 1. 
6 4 0 0.4033 
6 4 1 0.40831 
6 4 2 0.41955 
6 4 3 0.43775 
6 4 4 0.46128 
6 4 5 0.472 
6 4 6 0.51173 
6 4 7 0.56728 
6 4 8 0.633 
6 4 9 0.70753 
6 4 10 1. 
6 5 0 0.44472 
6 5 1 0.44977 
6 5 2 0.45784 
6 5 3 0.47064 
6 5 4 0.48645 
6 5 5 0.50817 
6 5 6 0.53891 
6 5 7 0.58719 
6 5 8 0.64891 
6 5 9 0.7198 
6 5 10 1. 
6 6 0 0.48898 
6 6 1 0.49683 
6 6 2 0.50427 
6 6 3 0.51863 
6 6 4 0.5323 
6 6 5 0.55163 
6 6 6 0.57991 
6 6 7 0.61839 
6 6 8 0.67222 
6 6 9 0.73659 
6 6 10 1. 
6 7 0 0.54498 
6 7 1 0.55159 
6 7 2 0.55875 
6 7 3 0.56952 
6 7 4 0.58652 
6 7 5 0.5997 
6 7 6 0.62441 
6 7 7 0.66036 
6 7 8 0.70542 
6 7 9 0.76053 
6 7 10 1. 
6 8 0 0.61319 
6 8 1 0.61737 
6 8 2 0.62123 
6 8 3 0.62661 
6 8 4 0.64066 
6 8 5 0.66323 
6 8 6 0.67734 
6 8 7 0.70873 
6 8 8 0.74775 
6 8 9 0.79286 
6 8 10 1. 
6 9 0 0.69289 
6 9 1 0.69623 
6 9 2 0.69978 
6 9 3 0.70341 
6 9 4 0.71361 
6 9 5 0.73136 
6 9 6 0.75323 
6 9 7 0.77103 
6 9 8 0.79941 
6 9 9 0.83134 
6 9 10 1. 
6 10 0 1. 
6 10 1 1. 
6 10 2 1. 
6 10 3 1. 
6 10 4 1. 
6 10 5 1. 
6 10 6 1. 
6 10 7 1. 
6 10 8 1. 
6 10 9 1. 
6 10 10 1. 
7 0 0 0.41764 
7 0 1 0.42111 
7 0 2 0.42661 
7 0 3 0.43939 
7 0 4 0.45972 
7 0 5 0.48789 
7 0 6 0.5247 
7 0 7 0.57284 
7 0 8 0.63795 
7 0 9 0.71673 
7 0 10 1. 
7 1 0 0.42136 
7 1 1 0.42634 
7 1 2 0.43234 
7 1 3 0.44484 
7 1 4 0.46572 
7 1 5 0.49464 
7 1 6 0.5318 
7 1 7 0.58 
7 1 8 0.64384 
7 1 9 0.72009 
7 1 10 1. 
7 2 0 0.42753 
7 2 1 0.43245 
7 2 2 0.43822 
7 2 3 0.45081 
7 2 4 0.47203 
7 2 5 0.50238 
7 2 6 0.54039 
7 2 7 0.58853 
7 2 8 0.65036 
7 2 9 0.72344 
7 2 10 1. 
7 3 0 0.44186 
7 3 1 0.4475 
7 3 2 0.45356 
7 3 3 0.46656 
7 3 4 0.48842 
7 3 5 0.51834 
7 3 6 0.55456 
7 3 7 0.60172 
7 3 8 0.65931 
7 3 9 0.72769 
7 3 10 1. 
7 4 0 0.46719 
7 4 1 0.47055 
7 4 2 0.47991 
7 4 3 0.49564 
7 4 4 0.51675 
7 4 5 0.5445 
7 4 6 0.5773 
7 4 7 0.6197 
7 4 8 0.67286 
7 4 9 0.73522 
7 4 10 1. 
7 5 0 0.50642 
7 5 1 0.51161 
7 5 2 0.51925 
7 5 3 0.5337 
7 5 4 0.55384 
7 5 5 0.56063 
7 5 6 0.58941 
7 5 7 0.63194 
7 5 8 0.68486 
7 5 9 0.74622 
7 5 10 1. 
7 6 0 0.54498 
7 6 1 0.55159 
7 6 2 0.55875 
7 6 3 0.5695 
7 6 4 0.58269 
7 6 5 0.59898 
7 6 6 0.62184 
7 6 7 0.65598 
7 6 8 0.70394 
7 6 9 0.76064 
7 6 10 1. 
7 7 0 0.58856 
7 7 1 0.59727 
7 7 2 0.60467 
7 7 3 0.61625 
7 7 4 0.63109 
7 7 5 0.64414 
7 7 6 0.66356 
7 7 7 0.69197 
7 7 8 0.73019 
7 7 9 0.78019 
7 7 10 1. 
7 8 0 0.64911 
7 8 1 0.65541 
7 8 2 0.6618 
7 8 3 0.66914 
7 8 4 0.68139 
7 8 5 0.698 
7 8 6 0.70967 
7 8 7 0.73392 
7 8 8 0.76744 
7 8 9 0.80755 
7 8 10 1. 
7 9 0 0.72072 
7 9 1 0.72345 
7 9 2 0.72598 
7 9 3 0.72822 
7 9 4 0.73766 
7 9 5 0.75127 
7 9 6 0.77106 
7 9 7 0.78294 
7 9 8 0.80969 
7 9 9 0.84287 
7 9 10 1. 
7 10 0 1. 
7 10 1 1. 
7 10 2 1. 
7 10 3 1. 
7 10 4 1. 
7 10 5 1. 
7 10 6 1. 
7 10 7 1. 
7 10 8 1. 
7 10 9 1. 
7 10 10 1. 
8 0 0 0.52734 
8 0 1 0.52989 
8 0 2 0.53292 
8 0 3 0.54142 
8 0 4 0.55516 
8 0 5 0.57509 
8 0 6 0.60198 
8 0 7 0.63795 
8 0 8 0.68586 
8 0 9 0.7502 
8 0 10 1. 
8 1 0 0.53011 
8 1 1 0.53455 
8 1 2 0.53803 
8 1 3 0.54592 
8 1 4 0.55994 
8 1 5 0.58011 
8 1 6 0.60753 
8 1 7 0.64384 
8 1 8 0.69166 
8 1 9 0.75362 
8 1 10 1. 
8 2 0 0.5332 
8 2 1 0.5382 
8 2 2 0.54305 
8 2 3 0.55025 
8 2 4 0.56414 
8 2 5 0.58466 
8 2 6 0.61323 
8 2 7 0.65036 
8 2 8 0.69744 
8 2 9 0.75756 
8 2 10 1. 
8 3 0 0.54202 
8 3 1 0.54652 
8 3 2 0.55028 
8 3 3 0.55648 
8 3 4 0.56938 
8 3 5 0.59134 
8 3 6 0.62089 
8 3 7 0.65931 
8 3 8 0.70661 
8 3 9 0.76272 
8 3 10 1. 
8 4 0 0.55627 
8 4 1 0.56106 
8 4 2 0.566 
8 4 3 0.57167 
8 4 4 0.58634 
8 4 5 0.60855 
8 4 6 0.63697 
8 4 7 0.67327 
8 4 8 0.71781 
8 4 9 0.77077 
8 4 10 1. 
8 5 0 0.57755 
8 5 1 0.58236 
8 5 2 0.5882 
8 5 3 0.597 
8 5 4 0.61373 
8 5 5 0.6352 
8 5 6 0.66075 
8 5 7 0.69359 
8 5 8 0.73333 
8 5 9 0.77981 
8 5 10 1. 
8 6 0 0.61319 
8 6 1 0.61737 
8 6 2 0.62123 
8 6 3 0.62639 
8 6 4 0.63777 
8 6 5 0.65391 
8 6 6 0.67512 
8 6 7 0.70497 
8 6 8 0.74392 
8 6 9 0.79159 
8 6 10 1. 
8 7 0 0.64911 
8 7 1 0.65541 
8 7 2 0.6618 
8 7 3 0.66914 
8 7 4 0.68136 
8 7 5 0.69327 
8 7 6 0.70911 
8 7 7 0.73225 
8 7 8 0.76552 
8 7 9 0.80766 
8 7 10 1. 
8 8 0 0.69297 
8 8 1 0.69972 
8 8 2 0.70611 
8 8 3 0.71483 
8 8 4 0.72594 
8 8 5 0.73927 
8 8 6 0.75042 
8 8 7 0.76903 
8 8 8 0.79502 
8 8 9 0.82955 
8 8 10 1. 
8 9 0 0.75506 
8 9 1 0.75892 
8 9 2 0.76309 
8 9 3 0.76798 
8 9 4 0.77581 
8 9 5 0.7858 
8 9 6 0.80016 
8 9 7 0.80958 
8 9 8 0.83109 
8 9 9 0.85895 
8 9 10 1. 
8 10 0 1. 
8 10 1 1. 
8 10 2 1. 
8 10 3 1. 
8 10 4 1. 
8 10 5 1. 
8 10 6 1. 
8 10 7 1. 
8 10 8 1. 
8 10 9 1. 
8 10 10 1. 
9 0 0 0.64841 
9 0 1 0.64931 
9 0 2 0.65042 
9 0 3 0.65502 
9 0 4 0.66327 
9 0 5 0.67527 
9 0 6 0.69223 
9 0 7 0.71673 
9 0 8 0.7502 
9 0 9 0.79559 
9 0 10 1. 
9 1 0 0.64959 
9 1 1 0.65241 
9 1 2 0.65425 
9 1 3 0.65758 
9 1 4 0.6658 
9 1 5 0.67797 
9 1 6 0.69523 
9 1 7 0.72009 
9 1 8 0.75362 
9 1 9 0.79841 
9 1 10 1. 
9 2 0 0.65042 
9 2 1 0.65459 
9 2 2 0.65723 
9 2 3 0.66097 
9 2 4 0.66794 
9 2 5 0.6805 
9 2 6 0.69811 
9 2 7 0.72344 
9 2 8 0.75756 
9 2 9 0.80198 
9 2 10 1. 
9 3 0 0.65511 
9 3 1 0.65766 
9 3 2 0.66083 
9 3 3 0.66412 
9 3 4 0.67152 
9 3 5 0.68305 
9 3 6 0.70078 
9 3 7 0.72769 
9 3 8 0.76272 
9 3 9 0.80695 
9 3 10 1. 
9 4 0 0.66325 
9 4 1 0.66584 
9 4 2 0.668 
9 4 3 0.67141 
9 4 4 0.67783 
9 4 5 0.6893 
9 4 6 0.7083 
9 4 7 0.73586 
9 4 8 0.77078 
9 4 9 0.8133 
9 4 10 1. 
9 5 0 0.67544 
9 5 1 0.6783 
9 5 2 0.68058 
9 5 3 0.68394 
9 5 4 0.69048 
9 5 5 0.70427 
9 5 6 0.72386 
9 5 7 0.74986 
9 5 8 0.78181 
9 5 9 0.82091 
9 5 10 1. 
9 6 0 0.69289 
9 6 1 0.69623 
9 6 2 0.69978 
9 6 3 0.70336 
9 6 4 0.71273 
9 6 5 0.72809 
9 6 6 0.74684 
9 6 7 0.7702 
9 6 8 0.79825 
9 6 9 0.82872 
9 6 10 1. 
9 7 0 0.72072 
9 7 1 0.72345 
9 7 2 0.72598 
9 7 3 0.72822 
9 7 4 0.73702 
9 7 5 0.74836 
9 7 6 0.76247 
9 7 7 0.78175 
9 7 8 0.80806 
9 7 9 0.84112 
9 7 10 1. 
9 8 0 0.75506 
9 8 1 0.75892 
9 8 2 0.76309 
9 8 3 0.76798 
9 8 4 0.77581 
9 8 5 0.78462 
9 8 6 0.79517 
9 8 7 0.80927 
9 8 8 0.83041 
9 8 9 0.85794 
9 8 10 1. 
9 9 0 0.799 
9 9 1 0.80236 
9 9 2 0.80606 
9 9 3 0.81133 
9 9 4 0.81778 
9 9 5 0.82537 
9 9 6 0.83323 
9 9 7 0.84425 
9 9 8 0.85983 
9 9 9 0.88039 
9 9 10 1. 
9 10 0 1. 
9 10 1 1. 
9 10 2 1. 
9 10 3 1. 
9 10 4 1. 
9 10 5 1. 
9 10 6 1. 
9 10 7 1. 
9 10 8 1. 
9 10 9 1. 
9 10 10 1. 
10 0 0 1. 
10 0 1 1. 
10 0 2 1. 
10 0 3 1. 
10 0 4 1. 
10 0 5 1. 
10 0 6 1. 
10 0 7 1. 
10 0 8 1. 
10 0 9 1. 
10 0 10 1. 
10 1 0 1. 
10 1 1 1. 
10 1 2 1. 
10 1 3 1. 
10 1 4 1. 
10 1 5 1. 
10 1 6 1. 
10 1 7 1. 
10 1 8 1. 
10 1 9 1. 
10 1 10 1. 
10 2 0 1. 
10 2 1 1. 
10 2 2 1. 
10 2 3 1. 
10 2 4 1. 
10 2 5 1. 
10 2 6 1. 
10 2 7 1. 
10 2 8 1. 
10 2 9 1. 
10 2 10 1. 
10 3 0 1. 
10 3 1 1. 
10 3 2 1. 
10 3 3 1. 
10 3 4 1. 
10 3 5 1. 
10 3 6 1. 
10 3 7 1. 
10 3 8 1. 
10 3 9 1. 
10 3 10 1. 
10 4 0 1. 
10 4 1 1. 
10 4 2 1. 
10 4 3 1. 
10 4 4 1. 
10 4 5 1. 
10 4 6 1. 
10 4 7 1. 
10 4 8 1. 
10 4 9 1. 
10 4 10 1. 
10 5 0 1. 
10 5 1 1. 
10 5 2 1. 
10 5 3 1. 
10 5 4 1. 
10 5 5 1. 
10 5 6 1. 
10 5 7 1. 
10 5 8 1. 
10 5 9 1. 
10 5 10 1. 
10 6 0 1. 
10 6 1 1. 
10 6 2 1. 
10 6 3 1. 
10 6 4 1. 
10 6 5 1. 
10 6 6 1. 
10 6 7 1. 
10 6 8 1. 
10 6 9 1. 
10 6 10 1. 
10 7 0 1. 
10 7 1 1. 
10 7 2 1. 
10 7 3 1. 
10 7 4 1. 
10 7 5 1. 
10 7 6 1. 
10 7 7 1. 
10 7 8 1. 
10 7 9 1. 
10 7 10 1. 
10 8 0 1. 
10 8 1 1. 
10 8 2 1. 
10 8 3 1. 
10 8 4 1. 
10 8 5 1. 
10 8 6 1. 
10 8 7 1. 
10 8 8 1. 
10 8 9 1. 
10 8 10 1. 
10 9 0 1. 
10 9 1 1. 
10 9 2 1. 
10 9 3 1. 
10 9 4 1. 
10 9 5 1. 
10 9 6 1. 
10 9 7 1. 
10 9 8 1. 
10 9 9 1. 
10 9 10 1. 
10 10 0 1. 
10 10 1 1. 
10 10 2 1. 
10 10 3 1. 
10 10 4 1. 
10 10 5 1. 
10 10 6 1. 
10 10 7 1. 
10 10 8 1. 
10 10 9 1. 
10 10 10 1.
 
